<?xml version="1.0" encoding="utf-8"?>
<!-- Generator: Adobe Illustrator 23.0.1, SVG Export Plug-In . SVG Version: 6.00 Build 0)  -->
<svg version="1.1" baseProfile="basic" id="svg3132" xmlns:svg="http://www.w3.org/2000/svg"
	 xmlns="http://www.w3.org/2000/svg" xmlns:xlink="http://www.w3.org/1999/xlink" x="0px" y="0px" viewBox="0 0 708.7 249.6"
	 xml:space="preserve">
<style type="text/css">
	.st0{fill-rule:evenodd;clip-rule:evenodd;fill:#FFB13B;}
	.st1{fill-rule:evenodd;clip-rule:evenodd;fill:#DE8500;}
	.st2{fill-rule:evenodd;clip-rule:evenodd;fill:#FF9900;}
	.st3{fill-rule:evenodd;clip-rule:evenodd;fill:#FFFFFF;}
	.st4{fill-rule:evenodd;clip-rule:evenodd;fill:#1F1F1F;}
	.st5{fill-rule:evenodd;clip-rule:evenodd;}
	.st6{fill-rule:evenodd;clip-rule:evenodd;fill:#FFFFFF;stroke:#000000;stroke-width:0.5035;}
	.st7{fill-rule:evenodd;clip-rule:evenodd;fill:#DFDFDF;}
</style>
<g id="layer1" transform="translate(-151.5037,-223.48)">
	<g id="_21781808" transform="matrix(1.888892,0,0,1.888892,-444.4171,-980.0124)">
		<rect id="_151162152" x="315.5" y="637.1" class="st0" width="375.2" height="132.2"/>
		<path id="_151161528" class="st1" d="M390.7,667.5c68-8.2,112.2,35.5,173.4,44.7c44.4,6.6,85.9-0.1,126.6-10.8v68H315.5v-92.6
			L390.7,667.5L390.7,667.5z"/>
		<path id="_151160904" class="st2" d="M447.6,769.3H315.5v-52.1l35-2.5c57.2,8.8,97.2,29.4,97.2,53.4
			C447.7,768.5,447.7,768.9,447.6,769.3L447.6,769.3z"/>
		<path id="_151160520" class="st1" d="M447.6,769.3H315.5v-52.1l4.2-0.3v48h127.7c0.2,1,0.2,2.1,0.2,3.1
			C447.7,768.5,447.7,768.9,447.6,769.3L447.6,769.3z"/>
		<path id="_151131352" class="st3" d="M369.4,637.1v20.2l20.2-20.2h27.9c0,3.6-1.4,7.2-4.1,9.9c-2.8,2.7-6.3,4.1-9.9,4.1
			l-20.2,20.2H412c2.5-2.5,6-4.1,9.9-4.1c7.7,0,14,6.3,14,14c0,7.7-6.3,14-14,14c-3.9,0-7.4-1.6-9.9-4.1h-28.6l20.2,20.2
			c3.6,0,7.1,1.4,9.9,4.1c5.4,5.4,5.4,14.3,0,19.8c-5.5,5.4-14.3,5.4-19.8,0c-2.7-2.8-4.1-6.3-4.1-9.9L369.4,705v28.6
			c2.5,2.5,4.1,6,4.1,9.9c0,7.7-6.3,14-14,14c-7.7,0-14-6.3-14-14c0-3.9,1.6-7.4,4.1-9.9V705l-20.2,20.2c0,3.6-1.4,7.1-4.1,9.9
			c-2.7,2.7-6.3,4.1-9.9,4.1v-27.9l20.2-20.2h-20.2v-19.8h20.2l-20.2-20.2v-14h14l20.2,20.2v-20.2L369.4,637.1L369.4,637.1z"/>
		<path id="_151130664" class="st4" d="M465.5,764.9c-6.2-7.9-9.9-17.9-9.9-28.7c0-12.9,5.2-24.6,13.7-33v0
			c8.5-8.5,13.7-20.1,13.7-33c0-10.8-3.7-20.8-9.9-28.8h213.3v123.5L465.5,764.9L465.5,764.9z"/>
		<path id="_151129960" class="st5" d="M465.5,764.9c-6.2-7.9-9.9-17.9-9.9-28.7c0-12.9,5.2-24.6,13.7-33v0
			c5.4-5.4,9.4-12,11.7-19.5c26.8,11,52.4,29.1,82.6,33.6c42.9,6.4,83.5-4.9,122.8-14.9v62.5L465.5,764.9L465.5,764.9z"/>
		<g id="g133">
			<path id="_151129200" class="st3" d="M599.2,728.4c4.4,0,8.2,2.1,10.7,5.3h-3.6c-1.9-1.7-4.4-2.7-7.1-2.7
				c-5.9,0-10.7,4.8-10.7,10.7s4.8,10.7,10.7,10.7c2.7,0,5.2-1,7.1-2.7h3.6c-2.4,3.2-6.3,5.3-10.7,5.3c-7.4,0-13.3-6-13.3-13.3
				C585.8,734.4,591.8,728.4,599.2,728.4L599.2,728.4z"/>
			<path id="_151128400" class="st3" d="M537.8,755.1c-7.4,0-13.3-6-13.3-13.3c0-7.4,6-13.3,13.3-13.3c4.4,0,8.2,2.1,10.7,5.4v-2.7
				h2.7v10.7v13.3h-2.7v-5.4C546,753,542.1,755.1,537.8,755.1L537.8,755.1z M537.8,752.4c-5.9,0-10.7-4.8-10.7-10.7
				s4.8-10.7,10.7-10.7s10.7,4.8,10.7,10.7S543.7,752.4,537.8,752.4z"/>
			<path id="_151184208" class="st3" d="M508.4,728.4c7.4,0,13.3,6,13.3,13.3c0,7.4-6,13.3-13.3,13.3c-4.4,0-8.2-2.1-10.7-5.4v5.4
				h-2.7v-13.3v-24h2.7v16C500.2,730.5,504.1,728.4,508.4,728.4L508.4,728.4z M508.4,752.4c-5.9,0-10.7-4.8-10.7-10.7
				s4.8-10.7,10.7-10.7s10.7,4.8,10.7,10.7S514.3,752.4,508.4,752.4L508.4,752.4z"/>
			<path id="_151183944" class="st3" d="M577.8,728.4h2.7v26.7h-2.7V728.4z M577.8,720.4h2.7v2.7h-2.7V720.4z"/>
			<path id="_151183560" class="st3" d="M564.5,755.1c4.4,0,8-3.6,8-8s-3.6-8-8-8c-2.2,0-4-1.8-4-4c0-2.2,1.8-4,4-4c2.2,0,4,1.8,4,4
				h2.7c0-3.7-3-6.7-6.7-6.7c-3.7,0-6.7,3-6.7,6.7c0,3.7,3,6.7,6.7,6.7c2.9,0,5.3,2.4,5.3,5.3c0,2.9-2.4,5.3-5.3,5.3
				c-2.9,0-5.3-2.4-5.3-5.3h-2.7C556.5,751.5,560.1,755.1,564.5,755.1L564.5,755.1z"/>
		</g>
		<g id="g140">
			<path id="_151182272" class="st6" d="M574.8,674.3h16.5v16.5l0,0c0,9.1-7.4,16.5-16.5,16.5s-16.5-7.4-16.5-16.5l0,0v-23.4h0
				c0-9.1,7.4-16.5,16.5-16.5s16.5,7.4,16.5,16.5h-9.7c0-3.8-3.1-6.8-6.8-6.8s-6.8,3.1-6.8,6.8v23.4l0,0c0,3.8,3.1,6.8,6.8,6.8
				s6.8-3.1,6.8-6.8v0V684h-6.8L574.8,674.3L574.8,674.3z"/>
			<path id="_151181224" class="st6" d="M497,679.1c-3-3-4.8-7.1-4.8-11.7c0-9.1,7.4-16.5,16.5-16.5c9.1,0,16.5,7.4,16.5,16.5h-9.7
				c0-3.8-3.1-6.8-6.8-6.8c-3.8,0-6.8,3.1-6.8,6.8c0,1.9,0.8,3.6,2,4.8l0,0c1.2,1.2,3,2,4.8,2v0c4.6,0,8.7,1.8,11.7,4.8l0,0
				c3,3,4.8,7.1,4.8,11.7c0,9.1-7.4,16.5-16.5,16.5c-9.1,0-16.5-7.4-16.5-16.5h9.7c0,3.8,3.1,6.8,6.8,6.8c3.8,0,6.8-3.1,6.8-6.8
				c0-1.9-0.8-3.6-2-4.8l0,0c-1.2-1.2-3-2-4.8-2v0C504.1,684,500,682.1,497,679.1L497,679.1L497,679.1z"/>
			<polygon id="_151180480" class="st6" points="558.3,650.9 546.6,707.3 536.9,707.3 525.2,650.9 534.9,650.9 541.7,683.9 
				548.6,650.9 			"/>
			<path id="_151022360" class="st6" d="M611.3,659.2v8.3h8.3v39.9h9.7v-56.4h-9.7C619.5,655.5,615.8,659.2,611.3,659.2z"/>
			<path id="_151022360_1_" class="st6" d="M638.9,659.2v8.3h8.3v39.9h9.7v-56.4h-9.7C647.1,655.5,643.4,659.2,638.9,659.2z"/>
			<rect id="_151022096" x="634" y="697.6" class="st6" width="9.7" height="9.7"/>
		</g>
		<path id="_151018824" class="st7" d="M369.4,637.1v4.3h-19.8v-4.3H369.4z M385.4,641.4l4.3-4.3h27.9c0,1.4-0.2,2.9-0.7,4.3H385.4
			L385.4,641.4z M319.7,738.6c-1.4,0.4-2.8,0.7-4.2,0.7v-27.9l4.2-4.2V738.6L319.7,738.6z M319.7,691.1h-4.2v-19.8h4.2V691.1z
			 M319.7,655.4l-4.2-4.2v-14h14l4.3,4.3h-14L319.7,655.4L319.7,655.4z"/>
		<path id="_151018664" class="st5" d="M315.5,751c6.6,0,13.2-2.5,18.3-7.5c0,14.2,11.6,25.8,25.8,25.8c14.2,0,25.8-11.6,25.8-25.8
			c10.1,10.1,26.4,10.1,36.5,0c10.1-10.1,10.1-26.4,0-36.5c14.2,0,25.8-11.6,25.8-25.8c0-14.2-11.6-25.8-25.8-25.8
			c5-5,7.5-11.7,7.5-18.3h-11.8c0,3.6-1.4,7.2-4.1,9.9c-2.8,2.7-6.3,4.1-9.9,4.1l-20.2,20.2H412c2.5-2.5,6-4.1,9.9-4.1
			c7.7,0,14,6.3,14,14c0,7.7-6.3,14-14,14c-3.9,0-7.4-1.6-9.9-4.1h-28.6l20.2,20.2c3.6,0,7.1,1.4,9.9,4.1c5.4,5.4,5.4,14.3,0,19.8
			c-5.5,5.4-14.3,5.4-19.8,0c-2.7-2.8-4.1-6.3-4.1-9.9L369.4,705v28.6c2.5,2.5,4.1,6,4.1,9.9c0,7.7-6.3,14-14,14
			c-7.7,0-14-6.3-14-14c0-3.9,1.6-7.4,4.1-9.9V705l-20.2,20.2c0,3.6-1.4,7.1-4.1,9.9c-2.7,2.7-6.3,4.1-9.9,4.1L315.5,751L315.5,751z
			 M389.6,637.1h-20.2v20.2L389.6,637.1z M349.7,637.1h-20.2l20.2,20.2V637.1z M315.5,651.1v20.2h20.2L315.5,651.1z M315.5,691.1
			v20.2l20.2-20.2H315.5z"/>
		<path id="_151018280" class="st4" d="M315.5,751c1.4,0,2.8-0.1,4.2-0.3v-12.1c-1.4,0.4-2.8,0.6-4.2,0.6V751L315.5,751z M319.7,707
			v-15.9h-4.2v20.2L319.7,707L319.7,707z M319.7,671.3v-15.9l-4.2-4.2v20.2H319.7L319.7,671.3z M333.7,641.4h15.9v-4.3h-20.2
			L333.7,641.4L333.7,641.4z M369.4,641.4h15.9l4.3-4.3h-20.2L369.4,641.4L369.4,641.4z M416.9,641.4H429c0.2-1.4,0.4-2.8,0.4-4.3
			h-11.8C417.6,638.6,417.3,640,416.9,641.4L416.9,641.4z M345.2,764.9c4.1,2.7,9,4.4,14.4,4.4c5.3,0,10.2-1.6,14.3-4.4H345.2z"/>
	</g>
</g>
</svg>
