<?xml version="1.0" encoding="utf-8"?>
<!-- Generator: Adobe Illustrator 23.0.1, SVG Export Plug-In . SVG Version: 6.00 Build 0)  -->
<svg version="1.1" baseProfile="tiny" id="Layer_1" xmlns="http://www.w3.org/2000/svg" xmlns:xlink="http://www.w3.org/1999/xlink"
	 x="0px" y="0px" viewBox="0 0 88 31" xml:space="preserve">
<g>
	<g id="Background">
	</g>
	<g id="Guides">
	</g>
	<g id="Foreground">
		<g>
			<polygon fill="none" points="0,0 88,0 88,31 0,31 			"/>
			<path fill="none" d="M44,15.5"/>
		</g>
		<g>
			<polygon fill="#97DBCB" points="0,0 83,0 83,31 0,31 			"/>
			<path fill="#FFCC66" d="M41.5,15.5"/>
		</g>
		<g>
			<polygon fill="#FFFFFF" points="0.4,0 36.8,0 36.8,31 0.4,31 			"/>
			<path fill="#FFFFFF" d="M18.6,15.5"/>
		</g>
		<g>
			<g>
				<g>
					<polygon id="XMLID_100_" fill="#504D4C" points="0,30 83,30 83,31 0,31 					"/>
				</g>
			</g>
		</g>
		<g>
			<g>
				<g>
					<polygon id="XMLID_102_" fill="#504D4C" points="82,0 83,0 83,31 82,31 					"/>
				</g>
			</g>
		</g>
		<g>
			<polygon fill="#CCCCCC" points="0,0 1,0 1,31 0,31 			"/>
			<path fill="#CCCCCC" d="M0.5,15.5"/>
		</g>
		<g>
			<g>
				<g>
					<polygon id="XMLID_106_" fill="#9E9C9C" points="81,1 82,1 82,29 81,29 					"/>
				</g>
			</g>
		</g>
		<g>
			<polygon fill="none" points="4.7,2.3 44.7,2.3 44.7,26.9 4.7,26.9 			"/>
			<path fill="none" d="M24.7,14.6"/>
		</g>
		<g>
			<g>
				<g>
					<polygon id="XMLID_110_" fill="#9E9C9C" points="2.2,29 82,29 82,30 2.2,30 					"/>
				</g>
			</g>
		</g>
		<g>
			<polygon fill="#CCCCCC" points="0,0 83,0 83,1 0,1 			"/>
			<path fill="#CCCCCC" d="M41.5,0.5"/>
		</g>
		<g>
			<polyline fill="none" stroke="#990000" stroke-width="4.8117" stroke-miterlimit="3.8637" points="68.3,8.6 74.3,14.1 86,2.4 			
				"/>
		</g>
		<g>
			<g>
				<path d="M33.1,7l0.3,2l-1.2,2.3c0,0-0.5-1-1.2-1.5c-0.6-0.4-1.1-0.5-1.7-0.4c-0.8,0.2-1.8,1.2-2.2,2.4c-0.5,1.5-0.5,2.2-0.5,2.8
					c0,1,0.1,1.7,0.1,1.7S26,15,26,13c0-1.4,0.2-2.7,0.9-3.9c0.6-1.1,1.4-1.8,2.2-1.8c0.8-0.1,1.4,0.3,1.9,0.7c0.5,0.4,1,1.3,1,1.3
					L33.1,7z"/>
				<path d="M33.2,18.5c0,0-0.5,0.9-0.8,1.3c-0.3,0.4-0.9,1-1.6,1.3c-0.7,0.3-1.1,0.4-1.8,0.3c-0.7-0.1-1.4-0.5-1.6-0.7
					c-0.2-0.2-0.8-0.7-1.2-1.1c-0.3-0.5-0.9-1.4-0.9-1.4s0.3,0.9,0.5,1.3c0.1,0.2,0.4,0.9,0.9,1.6c0.4,0.6,1.3,1.6,2.5,1.8
					s2.1-0.3,2.3-0.5c0.2-0.1,0.7-0.5,1-0.8c0.3-0.3,0.6-0.7,0.7-1c0.1-0.2,0.3-0.5,0.3-0.5L33.2,18.5z"/>
			</g>
			<g>
				<path fill="#005A9C" d="M11.4,7.1l2.9,9.7l2.9-9.7h2.1l-4.7,15.9h-0.2l-2.9-9.9l-3,9.9H8.2L3.5,7.1h2.1l2.9,9.7l1.9-6.5L9.4,7.1
					H11.4z"/>
				<path fill="#005A9C" d="M25.1,17.9c0,1.4-0.4,2.7-1.2,3.6s-1.8,1.5-3,1.5c-0.9,0-1.7-0.3-2.4-0.9s-1.2-1.4-1.5-2.4l1.6-0.7
					c0.2,0.6,0.5,1.1,0.9,1.4c0.4,0.3,0.8,0.5,1.4,0.5c0.5,0,1-0.3,1.4-0.9s0.6-1.4,0.6-2.2c0-1-0.2-1.7-0.6-2.2
					c-0.5-0.6-1.2-0.9-2.2-0.9h-0.8v-0.9L22,9.1h-3.3l-0.9,1.6h-0.6V7.1h7.7v1l-2.9,5c1,0.3,1.8,0.9,2.3,1.8
					C24.8,15.8,25.1,16.8,25.1,17.9z"/>
			</g>
		</g>
		<g>
			<path fill-rule="evenodd" d="M41.6,18.3v1.6h1.8v1.2h-1.8v2.3c0,0.3,0,0.4,0.2,0.5c0.1,0.1,0.3,0.1,0.6,0.1h0.9v1.2h-1.5
				c-0.7,0-1.2-0.1-1.5-0.4c-0.3-0.3-0.4-0.8-0.4-1.5v-2.3H39v-1.2h0.9v-1.6H41.6z"/>
			<path fill-rule="evenodd" d="M44.5,19.8h1.7v5.5h-1.7V19.8z M44.5,17.7h1.7v1.4h-1.7V17.7z"/>
			<path fill-rule="evenodd" d="M53.4,22v3.3h-1.8v-0.5v-2c0-0.5,0-0.8,0-1c0-0.2-0.1-0.3-0.1-0.4c-0.1-0.1-0.2-0.2-0.3-0.3
				C51.1,21,51,21,50.8,21c-0.4,0-0.7,0.1-0.9,0.4c-0.2,0.3-0.3,0.7-0.3,1.2v2.7h-1.7v-5.5h1.7v0.8c0.3-0.3,0.5-0.6,0.8-0.7
				c0.3-0.2,0.6-0.2,1-0.2c0.6,0,1.1,0.2,1.4,0.6C53.2,20.7,53.4,21.2,53.4,22z"/>
			<path fill-rule="evenodd" d="M54.3,19.8h1.7l1.5,3.7l1.2-3.7h1.7l-2.3,6c-0.2,0.6-0.5,1-0.8,1.3c-0.3,0.2-0.7,0.4-1.2,0.4h-1
				v-1.1h0.5c0.3,0,0.5,0,0.6-0.1c0.1-0.1,0.2-0.3,0.3-0.5l0-0.2L54.3,19.8z"/>
		</g>
		<g>
			<path fill-rule="evenodd" d="M44.8,7.1v1.5c-0.4-0.2-0.8-0.3-1.2-0.4c-0.4-0.1-0.7-0.1-1.1-0.1c-0.4,0-0.8,0.1-1,0.2
				c-0.2,0.1-0.3,0.3-0.3,0.6c0,0.2,0.1,0.3,0.2,0.5c0.1,0.1,0.4,0.2,0.8,0.3l0.8,0.2c0.8,0.2,1.4,0.4,1.7,0.7s0.5,0.8,0.5,1.4
				c0,0.8-0.2,1.4-0.7,1.8c-0.5,0.4-1.2,0.6-2.2,0.6c-0.5,0-0.9,0-1.4-0.1c-0.5-0.1-0.9-0.2-1.4-0.4v-1.6c0.5,0.2,0.9,0.4,1.3,0.6
				c0.4,0.1,0.9,0.2,1.3,0.2c0.4,0,0.7-0.1,0.9-0.2c0.2-0.1,0.3-0.3,0.3-0.6c0-0.2-0.1-0.4-0.2-0.5c-0.1-0.1-0.4-0.2-0.9-0.3
				l-0.7-0.2c-0.7-0.2-1.3-0.4-1.6-0.7C39.7,10,39.6,9.5,39.6,9c0-0.7,0.2-1.3,0.7-1.7c0.5-0.4,1.1-0.6,2-0.6c0.4,0,0.8,0,1.2,0.1
				C44,6.8,44.4,6.9,44.8,7.1z"/>
			<polygon fill-rule="evenodd" points="46.2,6.8 48.1,6.8 50,12.2 52,6.8 53.8,6.8 51.1,14.1 48.9,14.1 			"/>
			<path fill-rule="evenodd" d="M61.5,13.6c-0.5,0.2-1,0.4-1.5,0.5c-0.5,0.1-1,0.2-1.6,0.2c-1.2,0-2.2-0.3-2.9-1
				c-0.7-0.7-1.1-1.6-1.1-2.8c0-1.2,0.4-2.1,1.1-2.8c0.7-0.7,1.7-1,3-1c0.5,0,0.9,0,1.4,0.1c0.4,0.1,0.9,0.2,1.3,0.4v1.5
				c-0.4-0.2-0.8-0.4-1.2-0.5c-0.4-0.1-0.8-0.2-1.2-0.2c-0.7,0-1.3,0.2-1.7,0.6c-0.4,0.4-0.6,1-0.6,1.8c0,0.8,0.2,1.4,0.6,1.8
				s0.9,0.6,1.7,0.6c0.2,0,0.4,0,0.5,0c0.2,0,0.3-0.1,0.5-0.1v-1.4h-1.1v-1.3h2.9L61.5,13.6L61.5,13.6z"/>
		</g>
		<g>
			<polygon fill-rule="evenodd" points="63.8,24.2 65.3,24.2 65.3,20 63.9,20.3 63.9,19.1 65.3,18.8 66.6,18.8 66.6,24.2 68,24.2 
				68,25.4 63.8,25.4 			"/>
			<rect x="68.5" y="23.7" fill-rule="evenodd" width="1.5" height="1.6"/>
			<polygon fill-rule="evenodd" points="71.3,24.2 72.8,24.2 72.8,20 71.4,20.3 71.4,19.1 72.8,18.8 74.1,18.8 74.1,24.2 75.5,24.2 
				75.5,25.4 71.3,25.4 			"/>
		</g>
	</g>
</g>
</svg>
